-- Merging decision tree log ---
manifest
ADDED from /Users/surya/Documents/learning/TodoApp/android/app/src/main/AndroidManifest.xml:1:1-25:12
INJECTED from /Users/surya/Documents/learning/TodoApp/android/app/src/main/AndroidManifest.xml:1:1-25:12
INJECTED from /Users/surya/Documents/learning/TodoApp/android/app/src/main/AndroidManifest.xml:1:1-25:12
INJECTED from /Users/surya/Documents/learning/TodoApp/android/app/src/main/AndroidManifest.xml:1:1-25:12
MERGED from [com.facebook.react:flipper-integration:0.73.5] /Users/surya/.gradle/caches/transforms-3/62adc2a4ef534be04dd726cc000d9be4/transformed/jetified-flipper-integration-0.73.5-release/AndroidManifest.xml:2:1-7:12
MERGED from [:react-native-async-storage_async-storage] /Users/surya/Documents/learning/TodoApp/node_modules/@react-native-async-storage/async-storage/android/build/intermediates/merged_manifest/release/AndroidManifest.xml:2:1-7:12
MERGED from [:react-native-gesture-handler] /Users/surya/Documents/learning/TodoApp/node_modules/react-native-gesture-handler/android/build/intermediates/merged_manifest/release/AndroidManifest.xml:2:1-7:12
MERGED from [:react-native-safe-area-context] /Users/surya/Documents/learning/TodoApp/node_modules/react-native-safe-area-context/android/build/intermediates/merged_manifest/release/AndroidManifest.xml:2:1-7:12
MERGED from [:react-native-screens] /Users/surya/Documents/learning/TodoApp/node_modules/react-native-screens/android/build/intermediates/merged_manifest/release/AndroidManifest.xml:2:1-7:12
MERGED from [:react-native-vector-icons] /Users/surya/Documents/learning/TodoApp/node_modules/react-native-vector-icons/android/build/intermediates/merged_manifest/release/AndroidManifest.xml:2:1-7:12
MERGED from [:react-native-webview] /Users/surya/Documents/learning/TodoApp/node_modules/react-native-webview/android/build/intermediates/merged_manifest/release/AndroidManifest.xml:2:1-19:12
MERGED from [com.facebook.react:react-android:0.73.5] /Users/surya/.gradle/caches/transforms-3/4fb76773a75baa5b9ef47d3116f7ddda/transformed/jetified-react-android-0.73.5-release/AndroidManifest.xml:2:1-12:12
MERGED from [com.facebook.fresco:fresco:3.1.3] /Users/surya/.gradle/caches/transforms-3/73ba53becf6a818dacbfe76ccb7dfd5a/transformed/jetified-fresco-3.1.3/AndroidManifest.xml:2:1-7:12
MERGED from [com.facebook.fresco:imagepipeline-okhttp3:3.1.3] /Users/surya/.gradle/caches/transforms-3/78816c54b596e77b24ddd4d407d9d3f7/transformed/jetified-imagepipeline-okhttp3-3.1.3/AndroidManifest.xml:2:1-7:12
MERGED from [com.facebook.fresco:drawee:3.1.3] /Users/surya/.gradle/caches/transforms-3/ec5ffae71883a2ffe61d9bb0ecd6125b/transformed/jetified-drawee-3.1.3/AndroidManifest.xml:2:1-7:12
MERGED from [com.facebook.fresco:nativeimagefilters:3.1.3] /Users/surya/.gradle/caches/transforms-3/f47c646146e0a916b229951b5277ec72/transformed/jetified-nativeimagefilters-3.1.3/AndroidManifest.xml:2:1-7:12
MERGED from [com.facebook.fresco:memory-type-native:3.1.3] /Users/surya/.gradle/caches/transforms-3/9463ade28057419e742a85d1eb83c573/transformed/jetified-memory-type-native-3.1.3/AndroidManifest.xml:2:1-7:12
MERGED from [com.facebook.fresco:memory-type-java:3.1.3] /Users/surya/.gradle/caches/transforms-3/fe65cbe136c7a6ed6c0a1803f973fedb/transformed/jetified-memory-type-java-3.1.3/AndroidManifest.xml:2:1-7:12
MERGED from [com.facebook.fresco:imagepipeline-native:3.1.3] /Users/surya/.gradle/caches/transforms-3/c5fbdd7e5fcfdaf5ce16f3f875e3e6a8/transformed/jetified-imagepipeline-native-3.1.3/AndroidManifest.xml:2:1-7:12
MERGED from [com.facebook.fresco:memory-type-ashmem:3.1.3] /Users/surya/.gradle/caches/transforms-3/a47a4e08eda3385848d214641bc7b9d8/transformed/jetified-memory-type-ashmem-3.1.3/AndroidManifest.xml:2:1-7:12
MERGED from [com.facebook.fresco:imagepipeline:3.1.3] /Users/surya/.gradle/caches/transforms-3/a87cda0c4aab8edddd525f59ec5d6ecf/transformed/jetified-imagepipeline-3.1.3/AndroidManifest.xml:2:1-7:12
MERGED from [com.facebook.fresco:nativeimagetranscoder:3.1.3] /Users/surya/.gradle/caches/transforms-3/7cc434b4f1d90ca6b4967888f3cd4218/transformed/jetified-nativeimagetranscoder-3.1.3/AndroidManifest.xml:2:1-7:12
MERGED from [com.facebook.fresco:imagepipeline-base:3.1.3] /Users/surya/.gradle/caches/transforms-3/be2b599ee25b72ff91792f062e90e7d1/transformed/jetified-imagepipeline-base-3.1.3/AndroidManifest.xml:2:1-7:12
MERGED from [com.facebook.fresco:middleware:3.1.3] /Users/surya/.gradle/caches/transforms-3/7a9c524454ec247ef6b3d4f6fb3068fc/transformed/jetified-middleware-3.1.3/AndroidManifest.xml:2:1-7:12
MERGED from [com.facebook.fresco:ui-common:3.1.3] /Users/surya/.gradle/caches/transforms-3/47e39260d4b885e43f7a9a8653a0dcdf/transformed/jetified-ui-common-3.1.3/AndroidManifest.xml:2:1-7:12
MERGED from [com.facebook.fresco:soloader:3.1.3] /Users/surya/.gradle/caches/transforms-3/3312377aaac51673b757679288f8c083/transformed/jetified-soloader-3.1.3/AndroidManifest.xml:2:1-7:12
MERGED from [com.facebook.fresco:fbcore:3.1.3] /Users/surya/.gradle/caches/transforms-3/0038d2d4036a85741b91001e4541d656/transformed/jetified-fbcore-3.1.3/AndroidManifest.xml:2:1-7:12
MERGED from [androidx.appcompat:appcompat-resources:1.6.1] /Users/surya/.gradle/caches/transforms-3/061d078e19c3ae7d999b8bf4f4fbd3f7/transformed/jetified-appcompat-resources-1.6.1/AndroidManifest.xml:17:1-22:12
MERGED from [com.google.android.material:material:1.9.0] /Users/surya/.gradle/caches/transforms-3/d3a8a24834f295d8078f18b8298041f7/transformed/material-1.9.0/AndroidManifest.xml:17:1-26:12
MERGED from [androidx.constraintlayout:constraintlayout:2.0.1] /Users/surya/.gradle/caches/transforms-3/dd997c22ecb777a9e0898386a3d502a5/transformed/constraintlayout-2.0.1/AndroidManifest.xml:2:1-11:12
MERGED from [androidx.appcompat:appcompat:1.6.1] /Users/surya/.gradle/caches/transforms-3/b3627ca143232ec2ceb6e319eb18971d/transformed/appcompat-1.6.1/AndroidManifest.xml:17:1-22:12
MERGED from [androidx.viewpager2:viewpager2:1.0.0] /Users/surya/.gradle/caches/transforms-3/933cca3d682df19ab6b85bbd4417e041/transformed/jetified-viewpager2-1.0.0/AndroidManifest.xml:17:1-24:12
MERGED from [androidx.fragment:fragment:1.3.6] /Users/surya/.gradle/caches/transforms-3/b3aae516de8ada04cd390a9558584616/transformed/fragment-1.3.6/AndroidManifest.xml:17:1-24:12
MERGED from [androidx.activity:activity:1.6.0] /Users/surya/.gradle/caches/transforms-3/e58f5a5a9361b8dc0ec210eacdd61c46/transformed/jetified-activity-1.6.0/AndroidManifest.xml:17:1-22:12
MERGED from [androidx.dynamicanimation:dynamicanimation:1.0.0] /Users/surya/.gradle/caches/transforms-3/ac29b736242a45651a9bc02634f7a838/transformed/dynamicanimation-1.0.0/AndroidManifest.xml:17:1-22:12
MERGED from [androidx.legacy:legacy-support-core-utils:1.0.0] /Users/surya/.gradle/caches/transforms-3/9fabb327706f5707c9cd6e95d136c30d/transformed/legacy-support-core-utils-1.0.0/AndroidManifest.xml:17:1-22:12
MERGED from [androidx.loader:loader:1.0.0] /Users/surya/.gradle/caches/transforms-3/6ba283a3244530bbd4580a31b408c1c9/transformed/loader-1.0.0/AndroidManifest.xml:17:1-22:12
MERGED from [androidx.lifecycle:lifecycle-viewmodel:2.5.1] /Users/surya/.gradle/caches/transforms-3/aa8b400e3fa62f6a4287be6e71a3821f/transformed/lifecycle-viewmodel-2.5.1/AndroidManifest.xml:17:1-24:12
MERGED from [androidx.lifecycle:lifecycle-viewmodel-savedstate:2.5.1] /Users/surya/.gradle/caches/transforms-3/0c17d1aa2ccc813649d410d5ca1839aa/transformed/jetified-lifecycle-viewmodel-savedstate-2.5.1/AndroidManifest.xml:17:1-24:12
MERGED from [com.facebook.react:hermes-android:0.73.5] /Users/surya/.gradle/caches/transforms-3/79650d2cae9710063e054946618000c8/transformed/jetified-hermes-android-0.73.5-release/AndroidManifest.xml:2:1-7:12
MERGED from [androidx.savedstate:savedstate:1.2.0] /Users/surya/.gradle/caches/transforms-3/699d8495cfbcf29796d79737ecf7fe4f/transformed/jetified-savedstate-1.2.0/AndroidManifest.xml:17:1-24:12
MERGED from [androidx.swiperefreshlayout:swiperefreshlayout:1.1.0] /Users/surya/.gradle/caches/transforms-3/5b356190bdf4bb7065067fc153a69c6d/transformed/swiperefreshlayout-1.1.0/AndroidManifest.xml:17:1-24:12
MERGED from [androidx.emoji2:emoji2-views-helper:1.2.0] /Users/surya/.gradle/caches/transforms-3/46d614963c22b23ab93f8be235bc125f/transformed/jetified-emoji2-views-helper-1.2.0/AndroidManifest.xml:2:1-7:12
MERGED from [androidx.emoji2:emoji2:1.2.0] /Users/surya/.gradle/caches/transforms-3/faa3592d2fc203d6c74b9a5f601058a1/transformed/jetified-emoji2-1.2.0/AndroidManifest.xml:17:1-35:12
MERGED from [androidx.lifecycle:lifecycle-process:2.4.1] /Users/surya/.gradle/caches/transforms-3/71b91ea8216105cda74b0317da307340/transformed/jetified-lifecycle-process-2.4.1/AndroidManifest.xml:17:1-37:12
MERGED from [androidx.startup:startup-runtime:1.1.1] /Users/surya/.gradle/caches/transforms-3/57875db857c52963776a564122dcb84b/transformed/jetified-startup-runtime-1.1.1/AndroidManifest.xml:17:1-33:12
MERGED from [androidx.tracing:tracing:1.1.0] /Users/surya/.gradle/caches/transforms-3/1b375b5e368b03c6f05fa335182ca0d8/transformed/jetified-tracing-1.1.0/AndroidManifest.xml:17:1-24:12
MERGED from [androidx.coordinatorlayout:coordinatorlayout:1.2.0] /Users/surya/.gradle/caches/transforms-3/f1ad4007c9d50652fdaa15828c92907b/transformed/coordinatorlayout-1.2.0/AndroidManifest.xml:17:1-24:12
MERGED from [androidx.webkit:webkit:1.4.0] /Users/surya/.gradle/caches/transforms-3/35973e4bf37b8f4368f9e646e1c09d65/transformed/webkit-1.4.0/AndroidManifest.xml:17:1-24:12
MERGED from [androidx.autofill:autofill:1.1.0] /Users/surya/.gradle/caches/transforms-3/38344280fe9342d918737701bd2e1811/transformed/jetified-autofill-1.1.0/AndroidManifest.xml:17:1-24:12
MERGED from [androidx.vectordrawable:vectordrawable-animated:1.1.0] /Users/surya/.gradle/caches/transforms-3/27f32e5559bcd43034d6914ede1dc092/transformed/vectordrawable-animated-1.1.0/AndroidManifest.xml:17:1-24:12
MERGED from [androidx.vectordrawable:vectordrawable:1.1.0] /Users/surya/.gradle/caches/transforms-3/56c281bcb8243724411ecc33f6c1bde0/transformed/vectordrawable-1.1.0/AndroidManifest.xml:17:1-24:12
MERGED from [androidx.viewpager:viewpager:1.0.0] /Users/surya/.gradle/caches/transforms-3/a293f7f653f0b588e6fae043d6c99347/transformed/viewpager-1.0.0/AndroidManifest.xml:17:1-22:12
MERGED from [androidx.drawerlayout:drawerlayout:1.1.1] /Users/surya/.gradle/caches/transforms-3/9b7c687cf2ef0cdf849c0c1404623f4f/transformed/drawerlayout-1.1.1/AndroidManifest.xml:17:1-24:12
MERGED from [androidx.transition:transition:1.2.0] /Users/surya/.gradle/caches/transforms-3/345ebcb3e4094628456bcdee8e74a5da/transformed/transition-1.2.0/AndroidManifest.xml:17:1-24:12
MERGED from [androidx.core:core-ktx:1.9.0] /Users/surya/.gradle/caches/transforms-3/6fdd42089cdfdb89a5f7c93d6af7471d/transformed/jetified-core-ktx-1.9.0/AndroidManifest.xml:2:1-7:12
MERGED from [androidx.recyclerview:recyclerview:1.1.0] /Users/surya/.gradle/caches/transforms-3/0fd1425c12b4ad547fe75169beca3740/transformed/recyclerview-1.1.0/AndroidManifest.xml:17:1-24:12
MERGED from [androidx.customview:customview:1.1.0] /Users/surya/.gradle/caches/transforms-3/73759641b17cf7e1f9f823253eaf747b/transformed/customview-1.1.0/AndroidManifest.xml:17:1-24:12
MERGED from [androidx.core:core:1.9.0] /Users/surya/.gradle/caches/transforms-3/13659b94c66de92d98d7f8af61234b95/transformed/core-1.9.0/AndroidManifest.xml:17:1-30:12
MERGED from [androidx.cursoradapter:cursoradapter:1.0.0] /Users/surya/.gradle/caches/transforms-3/078806bd157ae28fc0dc0dff008ec247/transformed/cursoradapter-1.0.0/AndroidManifest.xml:17:1-22:12
MERGED from [androidx.lifecycle:lifecycle-runtime:2.5.1] /Users/surya/.gradle/caches/transforms-3/c2c67d6ef97116786f5e00cacbb4d36d/transformed/lifecycle-runtime-2.5.1/AndroidManifest.xml:17:1-24:12
MERGED from [androidx.interpolator:interpolator:1.0.0] /Users/surya/.gradle/caches/transforms-3/8e642d0218a62e2463dc98bf97fe4741/transformed/interpolator-1.0.0/AndroidManifest.xml:17:1-22:12
MERGED from [androidx.versionedparcelable:versionedparcelable:1.1.1] /Users/surya/.gradle/caches/transforms-3/5b9668a697a30efe2c2676a2ef171ba3/transformed/versionedparcelable-1.1.1/AndroidManifest.xml:17:1-27:12
MERGED from [androidx.cardview:cardview:1.0.0] /Users/surya/.gradle/caches/transforms-3/6119c53d075509c7c00b74ccdeb41c3b/transformed/cardview-1.0.0/AndroidManifest.xml:17:1-22:12
MERGED from [androidx.lifecycle:lifecycle-livedata:2.0.0] /Users/surya/.gradle/caches/transforms-3/0533ea7e787d4330488437d8f040f117/transformed/lifecycle-livedata-2.0.0/AndroidManifest.xml:17:1-22:12
MERGED from [androidx.lifecycle:lifecycle-livedata-core:2.5.1] /Users/surya/.gradle/caches/transforms-3/605c5c983d653fbcbe978ef5aeb9a8b2/transformed/lifecycle-livedata-core-2.5.1/AndroidManifest.xml:17:1-24:12
MERGED from [androidx.arch.core:core-runtime:2.1.0] /Users/surya/.gradle/caches/transforms-3/7afde1eb41d6777512f3b82b8c0854e7/transformed/core-runtime-2.1.0/AndroidManifest.xml:17:1-24:12
MERGED from [androidx.documentfile:documentfile:1.0.0] /Users/surya/.gradle/caches/transforms-3/6fab882c1c4696f4a34c8d66981c3728/transformed/documentfile-1.0.0/AndroidManifest.xml:17:1-22:12
MERGED from [androidx.localbroadcastmanager:localbroadcastmanager:1.0.0] /Users/surya/.gradle/caches/transforms-3/635c327730b2ff9d6991544b258a04a1/transformed/localbroadcastmanager-1.0.0/AndroidManifest.xml:17:1-22:12
MERGED from [androidx.print:print:1.0.0] /Users/surya/.gradle/caches/transforms-3/d57a71de353d6f615f194fd1f99fb600/transformed/print-1.0.0/AndroidManifest.xml:17:1-22:12
MERGED from [androidx.annotation:annotation-experimental:1.3.0] /Users/surya/.gradle/caches/transforms-3/efce1b44886555346c024fcbf6fda611/transformed/jetified-annotation-experimental-1.3.0/AndroidManifest.xml:17:1-22:12
MERGED from [com.facebook.fbjni:fbjni:0.5.1] /Users/surya/.gradle/caches/transforms-3/057fda56c2cfc52d70a46042a30c6944/transformed/jetified-fbjni-0.5.1/AndroidManifest.xml:2:1-7:12
MERGED from [com.facebook.soloader:soloader:0.10.5] /Users/surya/.gradle/caches/transforms-3/03d018e18e7118763cc731de8f689ba0/transformed/jetified-soloader-0.10.5/AndroidManifest.xml:2:1-17:12
	package
		INJECTED from /Users/surya/Documents/learning/TodoApp/android/app/src/main/AndroidManifest.xml
	android:versionName
		INJECTED from /Users/surya/Documents/learning/TodoApp/android/app/src/main/AndroidManifest.xml
	android:versionCode
		INJECTED from /Users/surya/Documents/learning/TodoApp/android/app/src/main/AndroidManifest.xml
	xmlns:android
		ADDED from /Users/surya/Documents/learning/TodoApp/android/app/src/main/AndroidManifest.xml:1:11-69
uses-permission#android.permission.INTERNET
ADDED from /Users/surya/Documents/learning/TodoApp/android/app/src/main/AndroidManifest.xml:3:5-67
	android:name
		ADDED from /Users/surya/Documents/learning/TodoApp/android/app/src/main/AndroidManifest.xml:3:22-64
application
ADDED from /Users/surya/Documents/learning/TodoApp/android/app/src/main/AndroidManifest.xml:5:5-24:19
INJECTED from /Users/surya/Documents/learning/TodoApp/android/app/src/main/AndroidManifest.xml:5:5-24:19
MERGED from [:react-native-webview] /Users/surya/Documents/learning/TodoApp/node_modules/react-native-webview/android/build/intermediates/merged_manifest/release/AndroidManifest.xml:7:5-17:19
MERGED from [:react-native-webview] /Users/surya/Documents/learning/TodoApp/node_modules/react-native-webview/android/build/intermediates/merged_manifest/release/AndroidManifest.xml:7:5-17:19
MERGED from [com.google.android.material:material:1.9.0] /Users/surya/.gradle/caches/transforms-3/d3a8a24834f295d8078f18b8298041f7/transformed/material-1.9.0/AndroidManifest.xml:24:5-20
MERGED from [com.google.android.material:material:1.9.0] /Users/surya/.gradle/caches/transforms-3/d3a8a24834f295d8078f18b8298041f7/transformed/material-1.9.0/AndroidManifest.xml:24:5-20
MERGED from [androidx.constraintlayout:constraintlayout:2.0.1] /Users/surya/.gradle/caches/transforms-3/dd997c22ecb777a9e0898386a3d502a5/transformed/constraintlayout-2.0.1/AndroidManifest.xml:9:5-20
MERGED from [androidx.constraintlayout:constraintlayout:2.0.1] /Users/surya/.gradle/caches/transforms-3/dd997c22ecb777a9e0898386a3d502a5/transformed/constraintlayout-2.0.1/AndroidManifest.xml:9:5-20
MERGED from [androidx.emoji2:emoji2:1.2.0] /Users/surya/.gradle/caches/transforms-3/faa3592d2fc203d6c74b9a5f601058a1/transformed/jetified-emoji2-1.2.0/AndroidManifest.xml:23:5-33:19
MERGED from [androidx.emoji2:emoji2:1.2.0] /Users/surya/.gradle/caches/transforms-3/faa3592d2fc203d6c74b9a5f601058a1/transformed/jetified-emoji2-1.2.0/AndroidManifest.xml:23:5-33:19
MERGED from [androidx.lifecycle:lifecycle-process:2.4.1] /Users/surya/.gradle/caches/transforms-3/71b91ea8216105cda74b0317da307340/transformed/jetified-lifecycle-process-2.4.1/AndroidManifest.xml:25:5-35:19
MERGED from [androidx.lifecycle:lifecycle-process:2.4.1] /Users/surya/.gradle/caches/transforms-3/71b91ea8216105cda74b0317da307340/transformed/jetified-lifecycle-process-2.4.1/AndroidManifest.xml:25:5-35:19
MERGED from [androidx.startup:startup-runtime:1.1.1] /Users/surya/.gradle/caches/transforms-3/57875db857c52963776a564122dcb84b/transformed/jetified-startup-runtime-1.1.1/AndroidManifest.xml:25:5-31:19
MERGED from [androidx.startup:startup-runtime:1.1.1] /Users/surya/.gradle/caches/transforms-3/57875db857c52963776a564122dcb84b/transformed/jetified-startup-runtime-1.1.1/AndroidManifest.xml:25:5-31:19
MERGED from [androidx.core:core:1.9.0] /Users/surya/.gradle/caches/transforms-3/13659b94c66de92d98d7f8af61234b95/transformed/core-1.9.0/AndroidManifest.xml:28:5-89
MERGED from [androidx.core:core:1.9.0] /Users/surya/.gradle/caches/transforms-3/13659b94c66de92d98d7f8af61234b95/transformed/core-1.9.0/AndroidManifest.xml:28:5-89
MERGED from [androidx.versionedparcelable:versionedparcelable:1.1.1] /Users/surya/.gradle/caches/transforms-3/5b9668a697a30efe2c2676a2ef171ba3/transformed/versionedparcelable-1.1.1/AndroidManifest.xml:24:5-25:19
MERGED from [androidx.versionedparcelable:versionedparcelable:1.1.1] /Users/surya/.gradle/caches/transforms-3/5b9668a697a30efe2c2676a2ef171ba3/transformed/versionedparcelable-1.1.1/AndroidManifest.xml:24:5-25:19
MERGED from [com.facebook.soloader:soloader:0.10.5] /Users/surya/.gradle/caches/transforms-3/03d018e18e7118763cc731de8f689ba0/transformed/jetified-soloader-0.10.5/AndroidManifest.xml:11:5-15:19
MERGED from [com.facebook.soloader:soloader:0.10.5] /Users/surya/.gradle/caches/transforms-3/03d018e18e7118763cc731de8f689ba0/transformed/jetified-soloader-0.10.5/AndroidManifest.xml:11:5-15:19
	android:extractNativeLibs
		INJECTED from /Users/surya/Documents/learning/TodoApp/android/app/src/main/AndroidManifest.xml
	android:appComponentFactory
		ADDED from [androidx.core:core:1.9.0] /Users/surya/.gradle/caches/transforms-3/13659b94c66de92d98d7f8af61234b95/transformed/core-1.9.0/AndroidManifest.xml:28:18-86
	android:label
		ADDED from /Users/surya/Documents/learning/TodoApp/android/app/src/main/AndroidManifest.xml:7:7-39
	android:roundIcon
		ADDED from /Users/surya/Documents/learning/TodoApp/android/app/src/main/AndroidManifest.xml:9:7-52
	android:icon
		ADDED from /Users/surya/Documents/learning/TodoApp/android/app/src/main/AndroidManifest.xml:8:7-41
	android:allowBackup
		ADDED from /Users/surya/Documents/learning/TodoApp/android/app/src/main/AndroidManifest.xml:10:7-34
	android:theme
		ADDED from /Users/surya/Documents/learning/TodoApp/android/app/src/main/AndroidManifest.xml:11:7-38
	android:name
		ADDED from /Users/surya/Documents/learning/TodoApp/android/app/src/main/AndroidManifest.xml:6:7-38
activity#com.todoapp.MainActivity
ADDED from /Users/surya/Documents/learning/TodoApp/android/app/src/main/AndroidManifest.xml:12:7-23:18
	android:label
		ADDED from /Users/surya/Documents/learning/TodoApp/android/app/src/main/AndroidManifest.xml:14:9-41
	android:launchMode
		ADDED from /Users/surya/Documents/learning/TodoApp/android/app/src/main/AndroidManifest.xml:16:9-40
	android:windowSoftInputMode
		ADDED from /Users/surya/Documents/learning/TodoApp/android/app/src/main/AndroidManifest.xml:17:9-51
	android:exported
		ADDED from /Users/surya/Documents/learning/TodoApp/android/app/src/main/AndroidManifest.xml:18:9-32
	android:configChanges
		ADDED from /Users/surya/Documents/learning/TodoApp/android/app/src/main/AndroidManifest.xml:15:9-118
	android:name
		ADDED from /Users/surya/Documents/learning/TodoApp/android/app/src/main/AndroidManifest.xml:13:9-37
intent-filter#action:name:android.intent.action.MAIN+category:name:android.intent.category.LAUNCHER
ADDED from /Users/surya/Documents/learning/TodoApp/android/app/src/main/AndroidManifest.xml:19:9-22:25
action#android.intent.action.MAIN
ADDED from /Users/surya/Documents/learning/TodoApp/android/app/src/main/AndroidManifest.xml:20:13-65
	android:name
		ADDED from /Users/surya/Documents/learning/TodoApp/android/app/src/main/AndroidManifest.xml:20:21-62
category#android.intent.category.LAUNCHER
ADDED from /Users/surya/Documents/learning/TodoApp/android/app/src/main/AndroidManifest.xml:21:13-73
	android:name
		ADDED from /Users/surya/Documents/learning/TodoApp/android/app/src/main/AndroidManifest.xml:21:23-70
uses-sdk
INJECTED from /Users/surya/Documents/learning/TodoApp/android/app/src/main/AndroidManifest.xml reason: use-sdk injection requested
INJECTED from /Users/surya/Documents/learning/TodoApp/android/app/src/main/AndroidManifest.xml
INJECTED from /Users/surya/Documents/learning/TodoApp/android/app/src/main/AndroidManifest.xml
MERGED from [com.facebook.react:flipper-integration:0.73.5] /Users/surya/.gradle/caches/transforms-3/62adc2a4ef534be04dd726cc000d9be4/transformed/jetified-flipper-integration-0.73.5-release/AndroidManifest.xml:5:5-44
MERGED from [com.facebook.react:flipper-integration:0.73.5] /Users/surya/.gradle/caches/transforms-3/62adc2a4ef534be04dd726cc000d9be4/transformed/jetified-flipper-integration-0.73.5-release/AndroidManifest.xml:5:5-44
MERGED from [:react-native-async-storage_async-storage] /Users/surya/Documents/learning/TodoApp/node_modules/@react-native-async-storage/async-storage/android/build/intermediates/merged_manifest/release/AndroidManifest.xml:5:5-44
MERGED from [:react-native-async-storage_async-storage] /Users/surya/Documents/learning/TodoApp/node_modules/@react-native-async-storage/async-storage/android/build/intermediates/merged_manifest/release/AndroidManifest.xml:5:5-44
MERGED from [:react-native-gesture-handler] /Users/surya/Documents/learning/TodoApp/node_modules/react-native-gesture-handler/android/build/intermediates/merged_manifest/release/AndroidManifest.xml:5:5-44
MERGED from [:react-native-gesture-handler] /Users/surya/Documents/learning/TodoApp/node_modules/react-native-gesture-handler/android/build/intermediates/merged_manifest/release/AndroidManifest.xml:5:5-44
MERGED from [:react-native-safe-area-context] /Users/surya/Documents/learning/TodoApp/node_modules/react-native-safe-area-context/android/build/intermediates/merged_manifest/release/AndroidManifest.xml:5:5-44
MERGED from [:react-native-safe-area-context] /Users/surya/Documents/learning/TodoApp/node_modules/react-native-safe-area-context/android/build/intermediates/merged_manifest/release/AndroidManifest.xml:5:5-44
MERGED from [:react-native-screens] /Users/surya/Documents/learning/TodoApp/node_modules/react-native-screens/android/build/intermediates/merged_manifest/release/AndroidManifest.xml:5:5-44
MERGED from [:react-native-screens] /Users/surya/Documents/learning/TodoApp/node_modules/react-native-screens/android/build/intermediates/merged_manifest/release/AndroidManifest.xml:5:5-44
MERGED from [:react-native-vector-icons] /Users/surya/Documents/learning/TodoApp/node_modules/react-native-vector-icons/android/build/intermediates/merged_manifest/release/AndroidManifest.xml:5:5-44
MERGED from [:react-native-vector-icons] /Users/surya/Documents/learning/TodoApp/node_modules/react-native-vector-icons/android/build/intermediates/merged_manifest/release/AndroidManifest.xml:5:5-44
MERGED from [:react-native-webview] /Users/surya/Documents/learning/TodoApp/node_modules/react-native-webview/android/build/intermediates/merged_manifest/release/AndroidManifest.xml:5:5-44
MERGED from [:react-native-webview] /Users/surya/Documents/learning/TodoApp/node_modules/react-native-webview/android/build/intermediates/merged_manifest/release/AndroidManifest.xml:5:5-44
MERGED from [com.facebook.react:react-android:0.73.5] /Users/surya/.gradle/caches/transforms-3/4fb76773a75baa5b9ef47d3116f7ddda/transformed/jetified-react-android-0.73.5-release/AndroidManifest.xml:10:5-44
MERGED from [com.facebook.react:react-android:0.73.5] /Users/surya/.gradle/caches/transforms-3/4fb76773a75baa5b9ef47d3116f7ddda/transformed/jetified-react-android-0.73.5-release/AndroidManifest.xml:10:5-44
MERGED from [com.facebook.fresco:fresco:3.1.3] /Users/surya/.gradle/caches/transforms-3/73ba53becf6a818dacbfe76ccb7dfd5a/transformed/jetified-fresco-3.1.3/AndroidManifest.xml:5:5-44
MERGED from [com.facebook.fresco:fresco:3.1.3] /Users/surya/.gradle/caches/transforms-3/73ba53becf6a818dacbfe76ccb7dfd5a/transformed/jetified-fresco-3.1.3/AndroidManifest.xml:5:5-44
MERGED from [com.facebook.fresco:imagepipeline-okhttp3:3.1.3] /Users/surya/.gradle/caches/transforms-3/78816c54b596e77b24ddd4d407d9d3f7/transformed/jetified-imagepipeline-okhttp3-3.1.3/AndroidManifest.xml:5:5-44
MERGED from [com.facebook.fresco:imagepipeline-okhttp3:3.1.3] /Users/surya/.gradle/caches/transforms-3/78816c54b596e77b24ddd4d407d9d3f7/transformed/jetified-imagepipeline-okhttp3-3.1.3/AndroidManifest.xml:5:5-44
MERGED from [com.facebook.fresco:drawee:3.1.3] /Users/surya/.gradle/caches/transforms-3/ec5ffae71883a2ffe61d9bb0ecd6125b/transformed/jetified-drawee-3.1.3/AndroidManifest.xml:5:5-44
MERGED from [com.facebook.fresco:drawee:3.1.3] /Users/surya/.gradle/caches/transforms-3/ec5ffae71883a2ffe61d9bb0ecd6125b/transformed/jetified-drawee-3.1.3/AndroidManifest.xml:5:5-44
MERGED from [com.facebook.fresco:nativeimagefilters:3.1.3] /Users/surya/.gradle/caches/transforms-3/f47c646146e0a916b229951b5277ec72/transformed/jetified-nativeimagefilters-3.1.3/AndroidManifest.xml:5:5-44
MERGED from [com.facebook.fresco:nativeimagefilters:3.1.3] /Users/surya/.gradle/caches/transforms-3/f47c646146e0a916b229951b5277ec72/transformed/jetified-nativeimagefilters-3.1.3/AndroidManifest.xml:5:5-44
MERGED from [com.facebook.fresco:memory-type-native:3.1.3] /Users/surya/.gradle/caches/transforms-3/9463ade28057419e742a85d1eb83c573/transformed/jetified-memory-type-native-3.1.3/AndroidManifest.xml:5:5-44
MERGED from [com.facebook.fresco:memory-type-native:3.1.3] /Users/surya/.gradle/caches/transforms-3/9463ade28057419e742a85d1eb83c573/transformed/jetified-memory-type-native-3.1.3/AndroidManifest.xml:5:5-44
MERGED from [com.facebook.fresco:memory-type-java:3.1.3] /Users/surya/.gradle/caches/transforms-3/fe65cbe136c7a6ed6c0a1803f973fedb/transformed/jetified-memory-type-java-3.1.3/AndroidManifest.xml:5:5-44
MERGED from [com.facebook.fresco:memory-type-java:3.1.3] /Users/surya/.gradle/caches/transforms-3/fe65cbe136c7a6ed6c0a1803f973fedb/transformed/jetified-memory-type-java-3.1.3/AndroidManifest.xml:5:5-44
MERGED from [com.facebook.fresco:imagepipeline-native:3.1.3] /Users/surya/.gradle/caches/transforms-3/c5fbdd7e5fcfdaf5ce16f3f875e3e6a8/transformed/jetified-imagepipeline-native-3.1.3/AndroidManifest.xml:5:5-44
MERGED from [com.facebook.fresco:imagepipeline-native:3.1.3] /Users/surya/.gradle/caches/transforms-3/c5fbdd7e5fcfdaf5ce16f3f875e3e6a8/transformed/jetified-imagepipeline-native-3.1.3/AndroidManifest.xml:5:5-44
MERGED from [com.facebook.fresco:memory-type-ashmem:3.1.3] /Users/surya/.gradle/caches/transforms-3/a47a4e08eda3385848d214641bc7b9d8/transformed/jetified-memory-type-ashmem-3.1.3/AndroidManifest.xml:5:5-44
MERGED from [com.facebook.fresco:memory-type-ashmem:3.1.3] /Users/surya/.gradle/caches/transforms-3/a47a4e08eda3385848d214641bc7b9d8/transformed/jetified-memory-type-ashmem-3.1.3/AndroidManifest.xml:5:5-44
MERGED from [com.facebook.fresco:imagepipeline:3.1.3] /Users/surya/.gradle/caches/transforms-3/a87cda0c4aab8edddd525f59ec5d6ecf/transformed/jetified-imagepipeline-3.1.3/AndroidManifest.xml:5:5-44
MERGED from [com.facebook.fresco:imagepipeline:3.1.3] /Users/surya/.gradle/caches/transforms-3/a87cda0c4aab8edddd525f59ec5d6ecf/transformed/jetified-imagepipeline-3.1.3/AndroidManifest.xml:5:5-44
MERGED from [com.facebook.fresco:nativeimagetranscoder:3.1.3] /Users/surya/.gradle/caches/transforms-3/7cc434b4f1d90ca6b4967888f3cd4218/transformed/jetified-nativeimagetranscoder-3.1.3/AndroidManifest.xml:5:5-44
MERGED from [com.facebook.fresco:nativeimagetranscoder:3.1.3] /Users/surya/.gradle/caches/transforms-3/7cc434b4f1d90ca6b4967888f3cd4218/transformed/jetified-nativeimagetranscoder-3.1.3/AndroidManifest.xml:5:5-44
MERGED from [com.facebook.fresco:imagepipeline-base:3.1.3] /Users/surya/.gradle/caches/transforms-3/be2b599ee25b72ff91792f062e90e7d1/transformed/jetified-imagepipeline-base-3.1.3/AndroidManifest.xml:5:5-44
MERGED from [com.facebook.fresco:imagepipeline-base:3.1.3] /Users/surya/.gradle/caches/transforms-3/be2b599ee25b72ff91792f062e90e7d1/transformed/jetified-imagepipeline-base-3.1.3/AndroidManifest.xml:5:5-44
MERGED from [com.facebook.fresco:middleware:3.1.3] /Users/surya/.gradle/caches/transforms-3/7a9c524454ec247ef6b3d4f6fb3068fc/transformed/jetified-middleware-3.1.3/AndroidManifest.xml:5:5-44
MERGED from [com.facebook.fresco:middleware:3.1.3] /Users/surya/.gradle/caches/transforms-3/7a9c524454ec247ef6b3d4f6fb3068fc/transformed/jetified-middleware-3.1.3/AndroidManifest.xml:5:5-44
MERGED from [com.facebook.fresco:ui-common:3.1.3] /Users/surya/.gradle/caches/transforms-3/47e39260d4b885e43f7a9a8653a0dcdf/transformed/jetified-ui-common-3.1.3/AndroidManifest.xml:5:5-44
MERGED from [com.facebook.fresco:ui-common:3.1.3] /Users/surya/.gradle/caches/transforms-3/47e39260d4b885e43f7a9a8653a0dcdf/transformed/jetified-ui-common-3.1.3/AndroidManifest.xml:5:5-44
MERGED from [com.facebook.fresco:soloader:3.1.3] /Users/surya/.gradle/caches/transforms-3/3312377aaac51673b757679288f8c083/transformed/jetified-soloader-3.1.3/AndroidManifest.xml:5:5-44
MERGED from [com.facebook.fresco:soloader:3.1.3] /Users/surya/.gradle/caches/transforms-3/3312377aaac51673b757679288f8c083/transformed/jetified-soloader-3.1.3/AndroidManifest.xml:5:5-44
MERGED from [com.facebook.fresco:fbcore:3.1.3] /Users/surya/.gradle/caches/transforms-3/0038d2d4036a85741b91001e4541d656/transformed/jetified-fbcore-3.1.3/AndroidManifest.xml:5:5-44
MERGED from [com.facebook.fresco:fbcore:3.1.3] /Users/surya/.gradle/caches/transforms-3/0038d2d4036a85741b91001e4541d656/transformed/jetified-fbcore-3.1.3/AndroidManifest.xml:5:5-44
MERGED from [androidx.appcompat:appcompat-resources:1.6.1] /Users/surya/.gradle/caches/transforms-3/061d078e19c3ae7d999b8bf4f4fbd3f7/transformed/jetified-appcompat-resources-1.6.1/AndroidManifest.xml:20:5-44
MERGED from [androidx.appcompat:appcompat-resources:1.6.1] /Users/surya/.gradle/caches/transforms-3/061d078e19c3ae7d999b8bf4f4fbd3f7/transformed/jetified-appcompat-resources-1.6.1/AndroidManifest.xml:20:5-44
MERGED from [com.google.android.material:material:1.9.0] /Users/surya/.gradle/caches/transforms-3/d3a8a24834f295d8078f18b8298041f7/transformed/material-1.9.0/AndroidManifest.xml:20:5-22:41
MERGED from [com.google.android.material:material:1.9.0] /Users/surya/.gradle/caches/transforms-3/d3a8a24834f295d8078f18b8298041f7/transformed/material-1.9.0/AndroidManifest.xml:20:5-22:41
MERGED from [androidx.constraintlayout:constraintlayout:2.0.1] /Users/surya/.gradle/caches/transforms-3/dd997c22ecb777a9e0898386a3d502a5/transformed/constraintlayout-2.0.1/AndroidManifest.xml:5:5-7:41
MERGED from [androidx.constraintlayout:constraintlayout:2.0.1] /Users/surya/.gradle/caches/transforms-3/dd997c22ecb777a9e0898386a3d502a5/transformed/constraintlayout-2.0.1/AndroidManifest.xml:5:5-7:41
MERGED from [androidx.appcompat:appcompat:1.6.1] /Users/surya/.gradle/caches/transforms-3/b3627ca143232ec2ceb6e319eb18971d/transformed/appcompat-1.6.1/AndroidManifest.xml:20:5-44
MERGED from [androidx.appcompat:appcompat:1.6.1] /Users/surya/.gradle/caches/transforms-3/b3627ca143232ec2ceb6e319eb18971d/transformed/appcompat-1.6.1/AndroidManifest.xml:20:5-44
MERGED from [androidx.viewpager2:viewpager2:1.0.0] /Users/surya/.gradle/caches/transforms-3/933cca3d682df19ab6b85bbd4417e041/transformed/jetified-viewpager2-1.0.0/AndroidManifest.xml:20:5-22:41
MERGED from [androidx.viewpager2:viewpager2:1.0.0] /Users/surya/.gradle/caches/transforms-3/933cca3d682df19ab6b85bbd4417e041/transformed/jetified-viewpager2-1.0.0/AndroidManifest.xml:20:5-22:41
MERGED from [androidx.fragment:fragment:1.3.6] /Users/surya/.gradle/caches/transforms-3/b3aae516de8ada04cd390a9558584616/transformed/fragment-1.3.6/AndroidManifest.xml:20:5-22:41
MERGED from [androidx.fragment:fragment:1.3.6] /Users/surya/.gradle/caches/transforms-3/b3aae516de8ada04cd390a9558584616/transformed/fragment-1.3.6/AndroidManifest.xml:20:5-22:41
MERGED from [androidx.activity:activity:1.6.0] /Users/surya/.gradle/caches/transforms-3/e58f5a5a9361b8dc0ec210eacdd61c46/transformed/jetified-activity-1.6.0/AndroidManifest.xml:20:5-44
MERGED from [androidx.activity:activity:1.6.0] /Users/surya/.gradle/caches/transforms-3/e58f5a5a9361b8dc0ec210eacdd61c46/transformed/jetified-activity-1.6.0/AndroidManifest.xml:20:5-44
MERGED from [androidx.dynamicanimation:dynamicanimation:1.0.0] /Users/surya/.gradle/caches/transforms-3/ac29b736242a45651a9bc02634f7a838/transformed/dynamicanimation-1.0.0/AndroidManifest.xml:20:5-44
MERGED from [androidx.dynamicanimation:dynamicanimation:1.0.0] /Users/surya/.gradle/caches/transforms-3/ac29b736242a45651a9bc02634f7a838/transformed/dynamicanimation-1.0.0/AndroidManifest.xml:20:5-44
MERGED from [androidx.legacy:legacy-support-core-utils:1.0.0] /Users/surya/.gradle/caches/transforms-3/9fabb327706f5707c9cd6e95d136c30d/transformed/legacy-support-core-utils-1.0.0/AndroidManifest.xml:20:5-44
MERGED from [androidx.legacy:legacy-support-core-utils:1.0.0] /Users/surya/.gradle/caches/transforms-3/9fabb327706f5707c9cd6e95d136c30d/transformed/legacy-support-core-utils-1.0.0/AndroidManifest.xml:20:5-44
MERGED from [androidx.loader:loader:1.0.0] /Users/surya/.gradle/caches/transforms-3/6ba283a3244530bbd4580a31b408c1c9/transformed/loader-1.0.0/AndroidManifest.xml:20:5-44
MERGED from [androidx.loader:loader:1.0.0] /Users/surya/.gradle/caches/transforms-3/6ba283a3244530bbd4580a31b408c1c9/transformed/loader-1.0.0/AndroidManifest.xml:20:5-44
MERGED from [androidx.lifecycle:lifecycle-viewmodel:2.5.1] /Users/surya/.gradle/caches/transforms-3/aa8b400e3fa62f6a4287be6e71a3821f/transformed/lifecycle-viewmodel-2.5.1/AndroidManifest.xml:20:5-22:41
MERGED from [androidx.lifecycle:lifecycle-viewmodel:2.5.1] /Users/surya/.gradle/caches/transforms-3/aa8b400e3fa62f6a4287be6e71a3821f/transformed/lifecycle-viewmodel-2.5.1/AndroidManifest.xml:20:5-22:41
MERGED from [androidx.lifecycle:lifecycle-viewmodel-savedstate:2.5.1] /Users/surya/.gradle/caches/transforms-3/0c17d1aa2ccc813649d410d5ca1839aa/transformed/jetified-lifecycle-viewmodel-savedstate-2.5.1/AndroidManifest.xml:20:5-22:41
MERGED from [androidx.lifecycle:lifecycle-viewmodel-savedstate:2.5.1] /Users/surya/.gradle/caches/transforms-3/0c17d1aa2ccc813649d410d5ca1839aa/transformed/jetified-lifecycle-viewmodel-savedstate-2.5.1/AndroidManifest.xml:20:5-22:41
MERGED from [com.facebook.react:hermes-android:0.73.5] /Users/surya/.gradle/caches/transforms-3/79650d2cae9710063e054946618000c8/transformed/jetified-hermes-android-0.73.5-release/AndroidManifest.xml:5:5-44
MERGED from [com.facebook.react:hermes-android:0.73.5] /Users/surya/.gradle/caches/transforms-3/79650d2cae9710063e054946618000c8/transformed/jetified-hermes-android-0.73.5-release/AndroidManifest.xml:5:5-44
MERGED from [androidx.savedstate:savedstate:1.2.0] /Users/surya/.gradle/caches/transforms-3/699d8495cfbcf29796d79737ecf7fe4f/transformed/jetified-savedstate-1.2.0/AndroidManifest.xml:20:5-22:41
MERGED from [androidx.savedstate:savedstate:1.2.0] /Users/surya/.gradle/caches/transforms-3/699d8495cfbcf29796d79737ecf7fe4f/transformed/jetified-savedstate-1.2.0/AndroidManifest.xml:20:5-22:41
MERGED from [androidx.swiperefreshlayout:swiperefreshlayout:1.1.0] /Users/surya/.gradle/caches/transforms-3/5b356190bdf4bb7065067fc153a69c6d/transformed/swiperefreshlayout-1.1.0/AndroidManifest.xml:20:5-22:41
MERGED from [androidx.swiperefreshlayout:swiperefreshlayout:1.1.0] /Users/surya/.gradle/caches/transforms-3/5b356190bdf4bb7065067fc153a69c6d/transformed/swiperefreshlayout-1.1.0/AndroidManifest.xml:20:5-22:41
MERGED from [androidx.emoji2:emoji2-views-helper:1.2.0] /Users/surya/.gradle/caches/transforms-3/46d614963c22b23ab93f8be235bc125f/transformed/jetified-emoji2-views-helper-1.2.0/AndroidManifest.xml:5:5-44
MERGED from [androidx.emoji2:emoji2-views-helper:1.2.0] /Users/surya/.gradle/caches/transforms-3/46d614963c22b23ab93f8be235bc125f/transformed/jetified-emoji2-views-helper-1.2.0/AndroidManifest.xml:5:5-44
MERGED from [androidx.emoji2:emoji2:1.2.0] /Users/surya/.gradle/caches/transforms-3/faa3592d2fc203d6c74b9a5f601058a1/transformed/jetified-emoji2-1.2.0/AndroidManifest.xml:21:5-44
MERGED from [androidx.emoji2:emoji2:1.2.0] /Users/surya/.gradle/caches/transforms-3/faa3592d2fc203d6c74b9a5f601058a1/transformed/jetified-emoji2-1.2.0/AndroidManifest.xml:21:5-44
MERGED from [androidx.lifecycle:lifecycle-process:2.4.1] /Users/surya/.gradle/caches/transforms-3/71b91ea8216105cda74b0317da307340/transformed/jetified-lifecycle-process-2.4.1/AndroidManifest.xml:21:5-23:41
MERGED from [androidx.lifecycle:lifecycle-process:2.4.1] /Users/surya/.gradle/caches/transforms-3/71b91ea8216105cda74b0317da307340/transformed/jetified-lifecycle-process-2.4.1/AndroidManifest.xml:21:5-23:41
MERGED from [androidx.startup:startup-runtime:1.1.1] /Users/surya/.gradle/caches/transforms-3/57875db857c52963776a564122dcb84b/transformed/jetified-startup-runtime-1.1.1/AndroidManifest.xml:21:5-23:41
MERGED from [androidx.startup:startup-runtime:1.1.1] /Users/surya/.gradle/caches/transforms-3/57875db857c52963776a564122dcb84b/transformed/jetified-startup-runtime-1.1.1/AndroidManifest.xml:21:5-23:41
MERGED from [androidx.tracing:tracing:1.1.0] /Users/surya/.gradle/caches/transforms-3/1b375b5e368b03c6f05fa335182ca0d8/transformed/jetified-tracing-1.1.0/AndroidManifest.xml:20:5-22:41
MERGED from [androidx.tracing:tracing:1.1.0] /Users/surya/.gradle/caches/transforms-3/1b375b5e368b03c6f05fa335182ca0d8/transformed/jetified-tracing-1.1.0/AndroidManifest.xml:20:5-22:41
MERGED from [androidx.coordinatorlayout:coordinatorlayout:1.2.0] /Users/surya/.gradle/caches/transforms-3/f1ad4007c9d50652fdaa15828c92907b/transformed/coordinatorlayout-1.2.0/AndroidManifest.xml:20:5-22:41
MERGED from [androidx.coordinatorlayout:coordinatorlayout:1.2.0] /Users/surya/.gradle/caches/transforms-3/f1ad4007c9d50652fdaa15828c92907b/transformed/coordinatorlayout-1.2.0/AndroidManifest.xml:20:5-22:41
MERGED from [androidx.webkit:webkit:1.4.0] /Users/surya/.gradle/caches/transforms-3/35973e4bf37b8f4368f9e646e1c09d65/transformed/webkit-1.4.0/AndroidManifest.xml:20:5-22:41
MERGED from [androidx.webkit:webkit:1.4.0] /Users/surya/.gradle/caches/transforms-3/35973e4bf37b8f4368f9e646e1c09d65/transformed/webkit-1.4.0/AndroidManifest.xml:20:5-22:41
MERGED from [androidx.autofill:autofill:1.1.0] /Users/surya/.gradle/caches/transforms-3/38344280fe9342d918737701bd2e1811/transformed/jetified-autofill-1.1.0/AndroidManifest.xml:20:5-22:41
MERGED from [androidx.autofill:autofill:1.1.0] /Users/surya/.gradle/caches/transforms-3/38344280fe9342d918737701bd2e1811/transformed/jetified-autofill-1.1.0/AndroidManifest.xml:20:5-22:41
MERGED from [androidx.vectordrawable:vectordrawable-animated:1.1.0] /Users/surya/.gradle/caches/transforms-3/27f32e5559bcd43034d6914ede1dc092/transformed/vectordrawable-animated-1.1.0/AndroidManifest.xml:20:5-22:41
MERGED from [androidx.vectordrawable:vectordrawable-animated:1.1.0] /Users/surya/.gradle/caches/transforms-3/27f32e5559bcd43034d6914ede1dc092/transformed/vectordrawable-animated-1.1.0/AndroidManifest.xml:20:5-22:41
MERGED from [androidx.vectordrawable:vectordrawable:1.1.0] /Users/surya/.gradle/caches/transforms-3/56c281bcb8243724411ecc33f6c1bde0/transformed/vectordrawable-1.1.0/AndroidManifest.xml:20:5-22:41
MERGED from [androidx.vectordrawable:vectordrawable:1.1.0] /Users/surya/.gradle/caches/transforms-3/56c281bcb8243724411ecc33f6c1bde0/transformed/vectordrawable-1.1.0/AndroidManifest.xml:20:5-22:41
MERGED from [androidx.viewpager:viewpager:1.0.0] /Users/surya/.gradle/caches/transforms-3/a293f7f653f0b588e6fae043d6c99347/transformed/viewpager-1.0.0/AndroidManifest.xml:20:5-44
MERGED from [androidx.viewpager:viewpager:1.0.0] /Users/surya/.gradle/caches/transforms-3/a293f7f653f0b588e6fae043d6c99347/transformed/viewpager-1.0.0/AndroidManifest.xml:20:5-44
MERGED from [androidx.drawerlayout:drawerlayout:1.1.1] /Users/surya/.gradle/caches/transforms-3/9b7c687cf2ef0cdf849c0c1404623f4f/transformed/drawerlayout-1.1.1/AndroidManifest.xml:20:5-22:41
MERGED from [androidx.drawerlayout:drawerlayout:1.1.1] /Users/surya/.gradle/caches/transforms-3/9b7c687cf2ef0cdf849c0c1404623f4f/transformed/drawerlayout-1.1.1/AndroidManifest.xml:20:5-22:41
MERGED from [androidx.transition:transition:1.2.0] /Users/surya/.gradle/caches/transforms-3/345ebcb3e4094628456bcdee8e74a5da/transformed/transition-1.2.0/AndroidManifest.xml:20:5-22:41
MERGED from [androidx.transition:transition:1.2.0] /Users/surya/.gradle/caches/transforms-3/345ebcb3e4094628456bcdee8e74a5da/transformed/transition-1.2.0/AndroidManifest.xml:20:5-22:41
MERGED from [androidx.core:core-ktx:1.9.0] /Users/surya/.gradle/caches/transforms-3/6fdd42089cdfdb89a5f7c93d6af7471d/transformed/jetified-core-ktx-1.9.0/AndroidManifest.xml:5:5-44
MERGED from [androidx.core:core-ktx:1.9.0] /Users/surya/.gradle/caches/transforms-3/6fdd42089cdfdb89a5f7c93d6af7471d/transformed/jetified-core-ktx-1.9.0/AndroidManifest.xml:5:5-44
MERGED from [androidx.recyclerview:recyclerview:1.1.0] /Users/surya/.gradle/caches/transforms-3/0fd1425c12b4ad547fe75169beca3740/transformed/recyclerview-1.1.0/AndroidManifest.xml:20:5-22:41
MERGED from [androidx.recyclerview:recyclerview:1.1.0] /Users/surya/.gradle/caches/transforms-3/0fd1425c12b4ad547fe75169beca3740/transformed/recyclerview-1.1.0/AndroidManifest.xml:20:5-22:41
MERGED from [androidx.customview:customview:1.1.0] /Users/surya/.gradle/caches/transforms-3/73759641b17cf7e1f9f823253eaf747b/transformed/customview-1.1.0/AndroidManifest.xml:20:5-22:41
MERGED from [androidx.customview:customview:1.1.0] /Users/surya/.gradle/caches/transforms-3/73759641b17cf7e1f9f823253eaf747b/transformed/customview-1.1.0/AndroidManifest.xml:20:5-22:41
MERGED from [androidx.core:core:1.9.0] /Users/surya/.gradle/caches/transforms-3/13659b94c66de92d98d7f8af61234b95/transformed/core-1.9.0/AndroidManifest.xml:20:5-44
MERGED from [androidx.core:core:1.9.0] /Users/surya/.gradle/caches/transforms-3/13659b94c66de92d98d7f8af61234b95/transformed/core-1.9.0/AndroidManifest.xml:20:5-44
MERGED from [androidx.cursoradapter:cursoradapter:1.0.0] /Users/surya/.gradle/caches/transforms-3/078806bd157ae28fc0dc0dff008ec247/transformed/cursoradapter-1.0.0/AndroidManifest.xml:20:5-44
MERGED from [androidx.cursoradapter:cursoradapter:1.0.0] /Users/surya/.gradle/caches/transforms-3/078806bd157ae28fc0dc0dff008ec247/transformed/cursoradapter-1.0.0/AndroidManifest.xml:20:5-44
MERGED from [androidx.lifecycle:lifecycle-runtime:2.5.1] /Users/surya/.gradle/caches/transforms-3/c2c67d6ef97116786f5e00cacbb4d36d/transformed/lifecycle-runtime-2.5.1/AndroidManifest.xml:20:5-22:41
MERGED from [androidx.lifecycle:lifecycle-runtime:2.5.1] /Users/surya/.gradle/caches/transforms-3/c2c67d6ef97116786f5e00cacbb4d36d/transformed/lifecycle-runtime-2.5.1/AndroidManifest.xml:20:5-22:41
MERGED from [androidx.interpolator:interpolator:1.0.0] /Users/surya/.gradle/caches/transforms-3/8e642d0218a62e2463dc98bf97fe4741/transformed/interpolator-1.0.0/AndroidManifest.xml:20:5-44
MERGED from [androidx.interpolator:interpolator:1.0.0] /Users/surya/.gradle/caches/transforms-3/8e642d0218a62e2463dc98bf97fe4741/transformed/interpolator-1.0.0/AndroidManifest.xml:20:5-44
MERGED from [androidx.versionedparcelable:versionedparcelable:1.1.1] /Users/surya/.gradle/caches/transforms-3/5b9668a697a30efe2c2676a2ef171ba3/transformed/versionedparcelable-1.1.1/AndroidManifest.xml:20:5-22:41
MERGED from [androidx.versionedparcelable:versionedparcelable:1.1.1] /Users/surya/.gradle/caches/transforms-3/5b9668a697a30efe2c2676a2ef171ba3/transformed/versionedparcelable-1.1.1/AndroidManifest.xml:20:5-22:41
MERGED from [androidx.cardview:cardview:1.0.0] /Users/surya/.gradle/caches/transforms-3/6119c53d075509c7c00b74ccdeb41c3b/transformed/cardview-1.0.0/AndroidManifest.xml:20:5-44
MERGED from [androidx.cardview:cardview:1.0.0] /Users/surya/.gradle/caches/transforms-3/6119c53d075509c7c00b74ccdeb41c3b/transformed/cardview-1.0.0/AndroidManifest.xml:20:5-44
MERGED from [androidx.lifecycle:lifecycle-livedata:2.0.0] /Users/surya/.gradle/caches/transforms-3/0533ea7e787d4330488437d8f040f117/transformed/lifecycle-livedata-2.0.0/AndroidManifest.xml:20:5-44
MERGED from [androidx.lifecycle:lifecycle-livedata:2.0.0] /Users/surya/.gradle/caches/transforms-3/0533ea7e787d4330488437d8f040f117/transformed/lifecycle-livedata-2.0.0/AndroidManifest.xml:20:5-44
MERGED from [androidx.lifecycle:lifecycle-livedata-core:2.5.1] /Users/surya/.gradle/caches/transforms-3/605c5c983d653fbcbe978ef5aeb9a8b2/transformed/lifecycle-livedata-core-2.5.1/AndroidManifest.xml:20:5-22:41
MERGED from [androidx.lifecycle:lifecycle-livedata-core:2.5.1] /Users/surya/.gradle/caches/transforms-3/605c5c983d653fbcbe978ef5aeb9a8b2/transformed/lifecycle-livedata-core-2.5.1/AndroidManifest.xml:20:5-22:41
MERGED from [androidx.arch.core:core-runtime:2.1.0] /Users/surya/.gradle/caches/transforms-3/7afde1eb41d6777512f3b82b8c0854e7/transformed/core-runtime-2.1.0/AndroidManifest.xml:20:5-22:41
MERGED from [androidx.arch.core:core-runtime:2.1.0] /Users/surya/.gradle/caches/transforms-3/7afde1eb41d6777512f3b82b8c0854e7/transformed/core-runtime-2.1.0/AndroidManifest.xml:20:5-22:41
MERGED from [androidx.documentfile:documentfile:1.0.0] /Users/surya/.gradle/caches/transforms-3/6fab882c1c4696f4a34c8d66981c3728/transformed/documentfile-1.0.0/AndroidManifest.xml:20:5-44
MERGED from [androidx.documentfile:documentfile:1.0.0] /Users/surya/.gradle/caches/transforms-3/6fab882c1c4696f4a34c8d66981c3728/transformed/documentfile-1.0.0/AndroidManifest.xml:20:5-44
MERGED from [androidx.localbroadcastmanager:localbroadcastmanager:1.0.0] /Users/surya/.gradle/caches/transforms-3/635c327730b2ff9d6991544b258a04a1/transformed/localbroadcastmanager-1.0.0/AndroidManifest.xml:20:5-44
MERGED from [androidx.localbroadcastmanager:localbroadcastmanager:1.0.0] /Users/surya/.gradle/caches/transforms-3/635c327730b2ff9d6991544b258a04a1/transformed/localbroadcastmanager-1.0.0/AndroidManifest.xml:20:5-44
MERGED from [androidx.print:print:1.0.0] /Users/surya/.gradle/caches/transforms-3/d57a71de353d6f615f194fd1f99fb600/transformed/print-1.0.0/AndroidManifest.xml:20:5-44
MERGED from [androidx.print:print:1.0.0] /Users/surya/.gradle/caches/transforms-3/d57a71de353d6f615f194fd1f99fb600/transformed/print-1.0.0/AndroidManifest.xml:20:5-44
MERGED from [androidx.annotation:annotation-experimental:1.3.0] /Users/surya/.gradle/caches/transforms-3/efce1b44886555346c024fcbf6fda611/transformed/jetified-annotation-experimental-1.3.0/AndroidManifest.xml:20:5-44
MERGED from [androidx.annotation:annotation-experimental:1.3.0] /Users/surya/.gradle/caches/transforms-3/efce1b44886555346c024fcbf6fda611/transformed/jetified-annotation-experimental-1.3.0/AndroidManifest.xml:20:5-44
MERGED from [com.facebook.fbjni:fbjni:0.5.1] /Users/surya/.gradle/caches/transforms-3/057fda56c2cfc52d70a46042a30c6944/transformed/jetified-fbjni-0.5.1/AndroidManifest.xml:5:5-44
MERGED from [com.facebook.fbjni:fbjni:0.5.1] /Users/surya/.gradle/caches/transforms-3/057fda56c2cfc52d70a46042a30c6944/transformed/jetified-fbjni-0.5.1/AndroidManifest.xml:5:5-44
MERGED from [com.facebook.soloader:soloader:0.10.5] /Users/surya/.gradle/caches/transforms-3/03d018e18e7118763cc731de8f689ba0/transformed/jetified-soloader-0.10.5/AndroidManifest.xml:7:5-9:41
MERGED from [com.facebook.soloader:soloader:0.10.5] /Users/surya/.gradle/caches/transforms-3/03d018e18e7118763cc731de8f689ba0/transformed/jetified-soloader-0.10.5/AndroidManifest.xml:7:5-9:41
	android:targetSdkVersion
		INJECTED from /Users/surya/Documents/learning/TodoApp/android/app/src/main/AndroidManifest.xml
	android:minSdkVersion
		INJECTED from /Users/surya/Documents/learning/TodoApp/android/app/src/main/AndroidManifest.xml
provider#com.reactnativecommunity.webview.RNCWebViewFileProvider
ADDED from [:react-native-webview] /Users/surya/Documents/learning/TodoApp/node_modules/react-native-webview/android/build/intermediates/merged_manifest/release/AndroidManifest.xml:8:9-16:20
	android:grantUriPermissions
		ADDED from [:react-native-webview] /Users/surya/Documents/learning/TodoApp/node_modules/react-native-webview/android/build/intermediates/merged_manifest/release/AndroidManifest.xml:12:13-47
	android:authorities
		ADDED from [:react-native-webview] /Users/surya/Documents/learning/TodoApp/node_modules/react-native-webview/android/build/intermediates/merged_manifest/release/AndroidManifest.xml:10:13-64
	android:exported
		ADDED from [:react-native-webview] /Users/surya/Documents/learning/TodoApp/node_modules/react-native-webview/android/build/intermediates/merged_manifest/release/AndroidManifest.xml:11:13-37
	android:name
		ADDED from [:react-native-webview] /Users/surya/Documents/learning/TodoApp/node_modules/react-native-webview/android/build/intermediates/merged_manifest/release/AndroidManifest.xml:9:13-83
meta-data#android.support.FILE_PROVIDER_PATHS
ADDED from [:react-native-webview] /Users/surya/Documents/learning/TodoApp/node_modules/react-native-webview/android/build/intermediates/merged_manifest/release/AndroidManifest.xml:13:13-15:63
	android:resource
		ADDED from [:react-native-webview] /Users/surya/Documents/learning/TodoApp/node_modules/react-native-webview/android/build/intermediates/merged_manifest/release/AndroidManifest.xml:15:17-60
	android:name
		ADDED from [:react-native-webview] /Users/surya/Documents/learning/TodoApp/node_modules/react-native-webview/android/build/intermediates/merged_manifest/release/AndroidManifest.xml:14:17-67
provider#androidx.startup.InitializationProvider
ADDED from [androidx.emoji2:emoji2:1.2.0] /Users/surya/.gradle/caches/transforms-3/faa3592d2fc203d6c74b9a5f601058a1/transformed/jetified-emoji2-1.2.0/AndroidManifest.xml:24:9-32:20
MERGED from [androidx.lifecycle:lifecycle-process:2.4.1] /Users/surya/.gradle/caches/transforms-3/71b91ea8216105cda74b0317da307340/transformed/jetified-lifecycle-process-2.4.1/AndroidManifest.xml:26:9-34:20
MERGED from [androidx.lifecycle:lifecycle-process:2.4.1] /Users/surya/.gradle/caches/transforms-3/71b91ea8216105cda74b0317da307340/transformed/jetified-lifecycle-process-2.4.1/AndroidManifest.xml:26:9-34:20
MERGED from [androidx.startup:startup-runtime:1.1.1] /Users/surya/.gradle/caches/transforms-3/57875db857c52963776a564122dcb84b/transformed/jetified-startup-runtime-1.1.1/AndroidManifest.xml:26:9-30:34
MERGED from [androidx.startup:startup-runtime:1.1.1] /Users/surya/.gradle/caches/transforms-3/57875db857c52963776a564122dcb84b/transformed/jetified-startup-runtime-1.1.1/AndroidManifest.xml:26:9-30:34
	tools:node
		ADDED from [androidx.emoji2:emoji2:1.2.0] /Users/surya/.gradle/caches/transforms-3/faa3592d2fc203d6c74b9a5f601058a1/transformed/jetified-emoji2-1.2.0/AndroidManifest.xml:28:13-31
	android:authorities
		ADDED from [androidx.emoji2:emoji2:1.2.0] /Users/surya/.gradle/caches/transforms-3/faa3592d2fc203d6c74b9a5f601058a1/transformed/jetified-emoji2-1.2.0/AndroidManifest.xml:26:13-68
	android:exported
		ADDED from [androidx.emoji2:emoji2:1.2.0] /Users/surya/.gradle/caches/transforms-3/faa3592d2fc203d6c74b9a5f601058a1/transformed/jetified-emoji2-1.2.0/AndroidManifest.xml:27:13-37
	android:name
		ADDED from [androidx.emoji2:emoji2:1.2.0] /Users/surya/.gradle/caches/transforms-3/faa3592d2fc203d6c74b9a5f601058a1/transformed/jetified-emoji2-1.2.0/AndroidManifest.xml:25:13-67
meta-data#androidx.emoji2.text.EmojiCompatInitializer
ADDED from [androidx.emoji2:emoji2:1.2.0] /Users/surya/.gradle/caches/transforms-3/faa3592d2fc203d6c74b9a5f601058a1/transformed/jetified-emoji2-1.2.0/AndroidManifest.xml:29:13-31:52
	android:value
		ADDED from [androidx.emoji2:emoji2:1.2.0] /Users/surya/.gradle/caches/transforms-3/faa3592d2fc203d6c74b9a5f601058a1/transformed/jetified-emoji2-1.2.0/AndroidManifest.xml:31:17-49
	android:name
		ADDED from [androidx.emoji2:emoji2:1.2.0] /Users/surya/.gradle/caches/transforms-3/faa3592d2fc203d6c74b9a5f601058a1/transformed/jetified-emoji2-1.2.0/AndroidManifest.xml:30:17-75
meta-data#androidx.lifecycle.ProcessLifecycleInitializer
ADDED from [androidx.lifecycle:lifecycle-process:2.4.1] /Users/surya/.gradle/caches/transforms-3/71b91ea8216105cda74b0317da307340/transformed/jetified-lifecycle-process-2.4.1/AndroidManifest.xml:31:13-33:52
	android:value
		ADDED from [androidx.lifecycle:lifecycle-process:2.4.1] /Users/surya/.gradle/caches/transforms-3/71b91ea8216105cda74b0317da307340/transformed/jetified-lifecycle-process-2.4.1/AndroidManifest.xml:33:17-49
	android:name
		ADDED from [androidx.lifecycle:lifecycle-process:2.4.1] /Users/surya/.gradle/caches/transforms-3/71b91ea8216105cda74b0317da307340/transformed/jetified-lifecycle-process-2.4.1/AndroidManifest.xml:32:17-78
permission#${applicationId}.DYNAMIC_RECEIVER_NOT_EXPORTED_PERMISSION
ADDED from [androidx.core:core:1.9.0] /Users/surya/.gradle/caches/transforms-3/13659b94c66de92d98d7f8af61234b95/transformed/core-1.9.0/AndroidManifest.xml:22:5-24:47
	android:protectionLevel
		ADDED from [androidx.core:core:1.9.0] /Users/surya/.gradle/caches/transforms-3/13659b94c66de92d98d7f8af61234b95/transformed/core-1.9.0/AndroidManifest.xml:24:9-44
	android:name
		ADDED from [androidx.core:core:1.9.0] /Users/surya/.gradle/caches/transforms-3/13659b94c66de92d98d7f8af61234b95/transformed/core-1.9.0/AndroidManifest.xml:23:9-81
permission#com.todoapp.DYNAMIC_RECEIVER_NOT_EXPORTED_PERMISSION
ADDED from [androidx.core:core:1.9.0] /Users/surya/.gradle/caches/transforms-3/13659b94c66de92d98d7f8af61234b95/transformed/core-1.9.0/AndroidManifest.xml:22:5-24:47
	android:protectionLevel
		ADDED from [androidx.core:core:1.9.0] /Users/surya/.gradle/caches/transforms-3/13659b94c66de92d98d7f8af61234b95/transformed/core-1.9.0/AndroidManifest.xml:24:9-44
	android:name
		ADDED from [androidx.core:core:1.9.0] /Users/surya/.gradle/caches/transforms-3/13659b94c66de92d98d7f8af61234b95/transformed/core-1.9.0/AndroidManifest.xml:23:9-81
uses-permission#${applicationId}.DYNAMIC_RECEIVER_NOT_EXPORTED_PERMISSION
ADDED from [androidx.core:core:1.9.0] /Users/surya/.gradle/caches/transforms-3/13659b94c66de92d98d7f8af61234b95/transformed/core-1.9.0/AndroidManifest.xml:26:5-97
	android:name
		ADDED from [androidx.core:core:1.9.0] /Users/surya/.gradle/caches/transforms-3/13659b94c66de92d98d7f8af61234b95/transformed/core-1.9.0/AndroidManifest.xml:26:22-94
uses-permission#com.todoapp.DYNAMIC_RECEIVER_NOT_EXPORTED_PERMISSION
ADDED from [androidx.core:core:1.9.0] /Users/surya/.gradle/caches/transforms-3/13659b94c66de92d98d7f8af61234b95/transformed/core-1.9.0/AndroidManifest.xml:26:5-97
	android:name
		ADDED from [androidx.core:core:1.9.0] /Users/surya/.gradle/caches/transforms-3/13659b94c66de92d98d7f8af61234b95/transformed/core-1.9.0/AndroidManifest.xml:26:22-94
meta-data#com.facebook.soloader.enabled
ADDED from [com.facebook.soloader:soloader:0.10.5] /Users/surya/.gradle/caches/transforms-3/03d018e18e7118763cc731de8f689ba0/transformed/jetified-soloader-0.10.5/AndroidManifest.xml:12:9-14:37
	android:value
		ADDED from [com.facebook.soloader:soloader:0.10.5] /Users/surya/.gradle/caches/transforms-3/03d018e18e7118763cc731de8f689ba0/transformed/jetified-soloader-0.10.5/AndroidManifest.xml:14:13-34
	android:name
		ADDED from [com.facebook.soloader:soloader:0.10.5] /Users/surya/.gradle/caches/transforms-3/03d018e18e7118763cc731de8f689ba0/transformed/jetified-soloader-0.10.5/AndroidManifest.xml:13:13-57
